`> [10, 0] Program
   +> ListDeclClass [List with 2 elements]
   |  []> [10, 0] DeclClass
   |  ||  +> [10, 6] Identifier (A)
   |  ||  +> [builtin] Identifier (Object)
   |  ||  |  definition: type (builtin), type=Object
   |  ||  +> ListDeclField [List with 0 elements]
   |  ||  `> ListDeclMethod [List with 0 elements]
   |  []> [12, 0] DeclClass
   |      +> [12, 6] Identifier (B)
   |      +> [12, 16] Identifier (A)
   |      +> ListDeclField [List with 0 elements]
   |      `> ListDeclMethod [List with 0 elements]
   `> EmptyMain
