`> [10, 0] Program
   +> ListDeclClass [List with 0 elements]
   `> [10, 0] Main
      +> ListDeclVar [List with 1 elements]
      |  []> [11, 8] DeclVar
      |      +> [11, 4] Identifier (int)
      |      +> [11, 8] Identifier (x)
      |      `> Initialization
      |         `> [11, 12] Int (10)
      `> ListInst [List with 3 elements]
         []> [12, 4] IfThenElse
         ||  +> [12, 8] BooleanLiteral (true)
         ||  +> ListInst [List with 1 elements]
         ||  |  []> [13, 8] Println
         ||  |      `> ListExpr [List with 1 elements]
         ||  |         []> [13, 16] Identifier (x)
         ||  `> ListInst [List with 0 elements]
         []> [16, 4] IfThenElse
         ||  +> [16, 8] Greater
         ||  |  +> [16, 8] Identifier (x)
         ||  |  `> [16, 10] Int (5)
         ||  +> ListInst [List with 1 elements]
         ||  |  []> [17, 8] Println
         ||  |      `> ListExpr [List with 1 elements]
         ||  |         []> [17, 16] Identifier (x)
         ||  `> ListInst [List with 1 elements]
         ||     []> IfThenElse
         ||         +> [19, 13] Lower
         ||         |  +> [19, 13] Identifier (x)
         ||         |  `> [19, 15] Int (10)
         ||         +> ListInst [List with 1 elements]
         ||         |  []> [20, 8] Println
         ||         |      `> ListExpr [List with 1 elements]
         ||         |         []> [20, 16] StringLiteral (non)
         ||         `> ListInst [List with 1 elements]
         ||            []> [24, 8] Println
         ||                `> ListExpr [List with 1 elements]
         ||                   []> [24, 16] StringLiteral (oui)
         []> [27, 4] IfThenElse
             +> [27, 7] Equals
             |  +> [27, 7] Identifier (x)
             |  `> [27, 12] Int (10)
             +> ListInst [List with 1 elements]
             |  []> [28, 8] Println
             |      `> ListExpr [List with 1 elements]
             |         []> [28, 16] StringLiteral (x=10)
             `> ListInst [List with 1 elements]
                []> [32, 8] Println
                    `> ListExpr [List with 1 elements]
                       []> [32, 16] StringLiteral (x!=10)
