`> [10, 0] Program
   +> ListDeclClass [List with 1 elements]
   |  []> [10, 0] DeclClass
   |      +> [10, 6] Identifier (B)
   |      +> [10, 16] Identifier (A)
   |      +> ListDeclField [List with 0 elements]
   |      `> ListDeclMethod [List with 0 elements]
   `> EmptyMain
