`> [10, 0] Program
   +> ListDeclClass [List with 1 elements]
   |  []> [10, 0] DeclClass
   |      +> [10, 6] Identifier (A)
   |      +> [builtin] Identifier (Object)
   |      |  definition: type (builtin), type=Object
   |      +> ListDeclField [List with 1 elements]
   |      |  []> [11, 8] [visibilitn,y=PUBLIC] DeclField
   |      |      +> [11, 4] Identifier (int)
   |      |      +> [11, 8] Identifier (x)
   |      |      `> NoInitialization
   |      `> ListDeclMethod [List with 1 elements]
   |         []> [13, 4] DeclMethod
   |             +> [13, 4] Identifier (void)
   |             +> [13, 9] Identifier (setX)
   |             +> ListDeclParam [List with 1 elements]
   |             |  []> [13, 14] DeclParam
   |             |      +> [13, 14] Identifier (int)
   |             |      `> [13, 18] Identifier (newX)
   |             `> [13, 24] MethodBody
   |                +> ListDeclVar [List with 0 elements]
   |                `> ListInst [List with 1 elements]
   |                   []> [14, 10] Assign
   |                       +> [14, 8] Identifier (x)
   |                       `> [14, 12] Identifier (newX)
   `> EmptyMain
