`> [10, 0] Program
   +> ListDeclClass [List with 1 elements]
   |  []> [10, 0] DeclClass
   |      +> [10, 6] Identifier (A)
   |      +> [builtin] Identifier (Object)
   |      |  definition: type (builtin), type=Object
   |      +> ListDeclField [List with 1 elements]
   |      |  []> [11, 8] [visibility=PUBLIC] DeclField
   |      |      +> [11, 4] Identifier (int)
   |      |      +> [11, 8] Identifier (x)
   |      |      `> NoInitialization
   |      `> ListDeclMethod [List with 1 elements]
   |         []> [13, 4] DeclMethod
   |             +> [13, 4] Identifier (int)
   |             +> [13, 8] Identifier (getX)
   |             +> ListDeclParam [List with 0 elements]
   |             `> [13, 15] MethodBody
   |                +> ListDeclVar [List with 0 elements]
   |                `> ListInst [List with 1 elements]
   |                   []> [14, 8] Return
   |                       `> [14, 15] Identifier (x)
   `> EmptyMain
