`> [10, 0] Program
   +> ListDeclClass [List with 0 elements]
   `> [10, 0] Main
      +> ListDeclVar [List with 1 elements]
      |  []> [11, 8] DeclVar
      |      +> [11, 4] Identifier (int)
      |      +> [11, 8] Identifier (x)
      |      `> NoInitialization
      `> ListInst [List with 0 elements]
