`> [9, 0] Program
   +> ListDeclClass [List with 1 elements]
   |  []> [9, 0] DeclClass
   |      +> [9, 6] Identifier (Chicken)
   |      |  definition: type defined at [9, 0], type=Chicken
   |      +> [builtin] Identifier (Object)
   |      |  definition: type (builtin), type=Object
   |      +> ListDeclField [List with 2 elements]
   |      |  []> [10, 18] [visibility=PROTECTED] DeclField
   |      |  ||  +> [10, 14] Identifier (int)
   |      |  ||  |  definition: type (builtin), type=int
   |      |  ||  +> [10, 18] Identifier (nbFeathers)
   |      |  ||  |  definition: field defined at [10, 18], type=int
   |      |  ||  `> NoInitialization
   |      |  []> [11, 18] [visibility=PROTECTED] DeclField
   |      |      +> [11, 14] Identifier (int)
   |      |      |  definition: type (builtin), type=int
   |      |      +> [11, 18] Identifier (age)
   |      |      |  definition: field defined at [11, 18], type=int
   |      |      `> [11, 22] Initialization
   |      |         `> [11, 24] Int (6)
   |      |            type: int
   |      `> ListDeclMethod [List with 0 elements]
   `> [14, 0] Main
      +> ListDeclVar [List with 1 elements]
      |  []> [15, 12] DeclVar
      |      +> [15, 4] Identifier (Chicken)
      |      |  definition: type defined at [9, 0], type=Chicken
      |      +> [15, 12] Identifier (c)
      |      |  definition: variable defined at [15, 12], type=Chicken
      |      `> [15, 12] Initialization
      |         `> [15, 16] New
      |            type: Chicken
      |            `> [15, 20] Identifier (Chicken)
      |               definition: type defined at [9, 0], type=Chicken
      `> ListInst [List with 0 elements]
