`> [10, 0] Program
   +> ListDeclClass [List with 0 elements]
   `> [10, 0] Main
      +> ListDeclVar [List with 0 elements]
      `> ListInst [List with 3 elements]
         []> [11, 6] Plus
         ||  type: float
         ||  +> ConvFloat
         ||  |  type: float
         ||  |  `> [11, 4] Int (2)
         ||  |     type: int
         ||  `> [11, 8] Float (5.0)
         ||     type: float
         []> [12, 8] Plus
         ||  type: float
         ||  +> [12, 4] Float (5.0)
         ||  |  type: float
         ||  `> ConvFloat
         ||     type: float
         ||     `> [12, 10] Int (30)
         ||        type: int
         []> [13, 12] Plus
             type: float
             +> ConvFloat
             |  type: float
             |  `> [13, 7] Multiply
             |     type: int
             |     +> [13, 4] Int (50)
             |     |  type: int
             |     `> [13, 9] Int (36)
             |        type: int
             `> [13, 14] Float (3.0)
                type: float
