`> [9, 0] Program
   +> ListDeclClass [List with 0 elements]
   `> [9, 0] Main
      +> ListDeclVar [List with 0 elements]
      `> ListInst [List with 1 elements]
         []> [10, 2] UnaryMinus
             type: int
             `> [10, 6] Plus
                type: int
                +> [10, 4] Int (3)
                |  type: int
                `> [10, 8] UnaryMinus
                   type: int
                   `> [10, 18] Multiply
                      type: int
                      +> [10, 13] Plus
                      |  type: int
                      |  +> [10, 11] Int (2)
                      |  |  type: int
                      |  `> [10, 15] Int (3)
                      |     type: int
                      `> [10, 20] Int (4)
                         type: int
