'class': [@0,112:116='class',<2>,11:0]
IDENT: [@1,118:118='A',<21>,11:6]
'{': [@2,120:120='{',<34>,11:8]
IDENT: [@3,126:129='void',<21>,12:4]
IDENT: [@4,131:135='bidon',<21>,12:9]
'(': [@5,136:136='(',<32>,12:14]
')': [@6,137:137=')',<33>,12:15]
'asm': [@7,139:141='asm',<1>,12:17]
'(': [@8,142:142='(',<32>,12:20]
STRING: [@9,143:147='"bla"',<46>,12:21]
')': [@10,148:148=')',<33>,12:26]
';': [@11,149:149=';',<37>,12:27]
'}': [@12,151:151='}',<35>,13:0]
