'{': [@0,109:109='{',<34>,9:0]
FLOAT: [@1,116:119='10.0',<45>,11:4]
';': [@2,120:120=';',<37>,11:8]
'-': [@3,126:126='-',<26>,12:4]
FLOAT: [@4,127:130='45.3',<45>,12:5]
';': [@5,131:131=';',<37>,12:9]
FLOAT: [@6,137:139='3.7',<45>,13:4]
'+': [@7,140:140='+',<25>,13:7]
FLOAT: [@8,143:146='43.1',<45>,13:10]
';': [@9,147:147=';',<37>,13:14]
FLOAT: [@10,153:155='8.9',<45>,14:4]
'+': [@11,158:158='+',<25>,14:9]
'-': [@12,160:160='-',<26>,14:11]
FLOAT: [@13,161:163='3.3',<45>,14:12]
';': [@14,167:167=';',<37>,14:18]
FLOAT: [@15,173:178='59.128',<45>,15:4]
'-': [@16,179:179='-',<26>,15:10]
FLOAT: [@17,180:185='76.687',<45>,15:11]
';': [@18,186:186=';',<37>,15:17]
FLOAT: [@19,192:198='47.3945',<45>,16:4]
'-': [@20,200:200='-',<26>,16:12]
FLOAT: [@21,204:210='32.1577',<45>,16:16]
';': [@22,211:211=';',<37>,16:23]
FLOAT: [@23,217:223='8.68001',<45>,17:4]
'*': [@24,224:224='*',<27>,17:11]
FLOAT: [@25,225:228='4.38',<45>,17:12]
';': [@26,229:229=';',<37>,17:16]
'-': [@27,235:235='-',<26>,18:4]
FLOAT: [@28,236:241='6.3507',<45>,18:5]
'*': [@29,245:245='*',<27>,18:14]
FLOAT: [@30,249:254='7.0007',<45>,18:18]
';': [@31,255:255=';',<37>,18:24]
FLOAT: [@32,261:268='9.000001',<45>,19:4]
'/': [@33,269:269='/',<28>,19:12]
FLOAT: [@34,270:276='3.00008',<45>,19:13]
';': [@35,277:277=';',<37>,19:20]
FLOAT: [@36,285:293='12.005401',<45>,20:6]
'/': [@37,296:296='/',<28>,20:17]
FLOAT: [@38,300:307='3.020301',<45>,20:21]
';': [@39,308:308=';',<37>,20:29]
FLOAT: [@40,314:318='9.980',<45>,21:4]
'%': [@41,322:322='%',<29>,21:12]
FLOAT: [@42,323:327='4.023',<45>,21:13]
';': [@43,329:329=';',<37>,21:19]
FLOAT: [@44,335:340='12.360',<45>,22:4]
'%': [@45,343:343='%',<29>,22:12]
FLOAT: [@46,347:353='5.25840',<45>,22:16]
';': [@47,356:356=';',<37>,22:25]
FLOAT: [@48,372:377='19.215',<45>,25:4]
'*': [@49,379:379='*',<27>,25:11]
FLOAT: [@50,380:384='7.651',<45>,25:12]
'/': [@51,386:386='/',<28>,25:18]
FLOAT: [@52,388:391='6.21',<45>,25:20]
'+': [@53,393:393='+',<25>,25:25]
'(': [@54,395:395='(',<32>,25:27]
FLOAT: [@55,396:399='1.61',<45>,25:28]
'-': [@56,401:401='-',<26>,25:33]
FLOAT: [@57,403:406='30.2',<45>,25:35]
')': [@58,407:407=')',<33>,25:39]
';': [@59,408:408=';',<37>,25:40]
FLOAT: [@60,414:423='18.2555044',<45>,26:4]
'%': [@61,425:425='%',<29>,26:15]
'(': [@62,427:427='(',<32>,26:17]
FLOAT: [@63,428:434='4.02510',<45>,26:18]
'+': [@64,436:436='+',<25>,26:26]
FLOAT: [@65,438:443='3.0840',<45>,26:28]
'-': [@66,446:446='-',<26>,26:36]
'-': [@67,448:448='-',<26>,26:38]
FLOAT: [@68,449:454='4.3001',<45>,26:39]
')': [@69,455:455=')',<33>,26:45]
'/': [@70,459:459='/',<28>,26:49]
FLOAT: [@71,461:466='2.6510',<45>,26:51]
';': [@72,467:467=';',<37>,26:57]
FLOAT: [@73,473:480='6.002200',<45>,27:4]
'+': [@74,482:482='+',<25>,27:13]
'(': [@75,486:486='(',<32>,27:17]
'(': [@76,487:487='(',<32>,27:18]
FLOAT: [@77,488:495='1.002510',<45>,27:19]
'*': [@78,497:497='*',<27>,27:28]
'(': [@79,501:501='(',<32>,27:32]
FLOAT: [@80,502:508='3.02110',<45>,27:33]
')': [@81,509:509=')',<33>,27:40]
'+': [@82,513:513='+',<25>,27:44]
FLOAT: [@83,517:522='7.2001',<45>,27:48]
')': [@84,523:523=')',<33>,27:54]
')': [@85,524:524=')',<33>,27:55]
'*': [@86,528:528='*',<27>,27:59]
'-': [@87,529:529='-',<26>,27:60]
FLOAT: [@88,530:535='2.0241',<45>,27:61]
';': [@89,536:536=';',<37>,27:67]
'}': [@90,538:538='}',<35>,28:0]
