'{': [@0,106:106='{',<34>,10:0]
'println': [@1,112:118='println',<13>,11:4]
'(': [@2,119:119='(',<32>,11:11]
STRING: [@3,110:123='"Hello world!"',<46>,10:4]
')': [@4,124:124=')',<33>,10:18]
';': [@5,125:125=';',<37>,10:19]
'}': [@6,127:127='}',<35>,11:0]
