'class': [@0,170:174='class',<2>,11:0]
IDENT: [@1,176:176='A',<21>,11:6]
'{': [@2,178:178='{',<34>,11:8]
'}': [@3,179:179='}',<35>,11:9]
'{': [@4,182:182='{',<34>,13:0]
IDENT: [@5,188:188='A',<21>,14:4]
IDENT: [@6,190:190='a',<21>,14:6]
'=': [@7,192:192='=',<24>,14:8]
'null': [@8,194:197='null',<9>,14:10]
';': [@9,198:198=';',<37>,14:14]
'}': [@10,200:200='}',<35>,15:0]
