'{': [@0,356:356='{',<34>,20:0]
'println': [@1,363:369='println',<13>,22:4]
'(': [@2,370:370='(',<32>,22:11]
FLOAT: [@3,371:375='10.32',<45>,22:12]
')': [@4,376:376=')',<33>,22:17]
';': [@5,377:377=';',<37>,22:18]
'println': [@6,383:389='println',<13>,23:4]
'(': [@7,390:390='(',<32>,23:11]
'-': [@8,391:391='-',<26>,23:12]
FLOAT: [@9,392:396='45.84',<45>,23:13]
')': [@10,399:399=')',<33>,23:20]
';': [@11,400:400=';',<37>,23:21]
'println': [@12,406:412='println',<13>,24:4]
'(': [@13,413:413='(',<32>,24:11]
FLOAT: [@14,414:416='3.6',<45>,24:12]
'+': [@15,417:417='+',<25>,24:15]
FLOAT: [@16,420:423='43.0',<45>,24:18]
')': [@17,424:424=')',<33>,24:22]
';': [@18,425:425=';',<37>,24:23]
'println': [@19,431:437='println',<13>,25:4]
'(': [@20,438:438='(',<32>,25:11]
FLOAT: [@21,441:443='8.6',<45>,25:14]
'+': [@22,446:446='+',<25>,25:19]
'-': [@23,448:448='-',<26>,25:21]
FLOAT: [@24,449:451='3.2',<45>,25:22]
')': [@25,455:455=')',<33>,25:28]
';': [@26,456:456=';',<37>,25:29]
'println': [@27,462:468='println',<13>,26:4]
'(': [@28,469:469='(',<32>,26:11]
FLOAT: [@29,470:473='59.1',<45>,26:12]
'-': [@30,474:474='-',<26>,26:16]
FLOAT: [@31,475:478='76.1',<45>,26:17]
')': [@32,479:479=')',<33>,26:21]
';': [@33,480:480=';',<37>,26:22]
'println': [@34,486:492='println',<13>,27:4]
'(': [@35,493:493='(',<32>,27:11]
FLOAT: [@36,494:497='47.4',<45>,27:12]
'-': [@37,499:499='-',<26>,27:17]
FLOAT: [@38,503:506='32.1',<45>,27:21]
')': [@39,507:507=')',<33>,27:25]
';': [@40,508:508=';',<37>,27:26]
'print': [@41,514:518='print',<12>,28:4]
'(': [@42,519:519='(',<32>,28:9]
FLOAT: [@43,520:522='8.4',<45>,28:10]
'*': [@44,523:523='*',<27>,28:13]
FLOAT: [@45,524:526='4.0',<45>,28:14]
')': [@46,527:527=')',<33>,28:17]
';': [@47,528:528=';',<37>,28:18]
'print': [@48,534:538='print',<12>,29:4]
'(': [@49,539:539='(',<32>,29:9]
'-': [@50,540:540='-',<26>,29:10]
FLOAT: [@51,541:543='6.4',<45>,29:11]
'*': [@52,547:547='*',<27>,29:17]
FLOAT: [@53,551:553='7.2',<45>,29:21]
')': [@54,554:554=')',<33>,29:24]
';': [@55,555:555=';',<37>,29:25]
'print': [@56,561:565='print',<12>,30:4]
'(': [@57,566:566='(',<32>,30:9]
FLOAT: [@58,567:569='9.0',<45>,30:10]
'/': [@59,570:570='/',<28>,30:13]
FLOAT: [@60,571:573='3.0',<45>,30:14]
')': [@61,574:574=')',<33>,30:17]
';': [@62,575:575=';',<37>,30:18]
'println': [@63,581:587='println',<13>,31:4]
'(': [@64,588:588='(',<32>,31:11]
FLOAT: [@65,591:594='12.0',<45>,31:14]
'/': [@66,597:597='/',<28>,31:20]
FLOAT: [@67,601:603='3.0',<45>,31:24]
')': [@68,604:604=')',<33>,31:27]
';': [@69,605:605=';',<37>,31:28]
'println': [@70,611:617='println',<13>,32:4]
'(': [@71,618:618='(',<32>,32:11]
FLOAT: [@72,619:621='9.0',<45>,32:12]
'%': [@73,625:625='%',<29>,32:18]
FLOAT: [@74,626:628='4.0',<45>,32:19]
')': [@75,630:630=')',<33>,32:23]
';': [@76,631:631=';',<37>,32:24]
'println': [@77,637:643='println',<13>,33:4]
'(': [@78,644:644='(',<32>,33:11]
FLOAT: [@79,645:648='12.0',<45>,33:12]
'%': [@80,651:651='%',<29>,33:18]
FLOAT: [@81,655:657='5.0',<45>,33:22]
')': [@82,660:660=')',<33>,33:27]
';': [@83,661:661=';',<37>,33:28]
'println': [@84,667:673='println',<13>,34:4]
'(': [@85,674:674='(',<32>,34:11]
FLOAT: [@86,675:678='12.0',<45>,34:12]
'+': [@87,679:679='+',<25>,34:16]
FLOAT: [@88,680:682='7.4',<45>,34:17]
',': [@89,683:683=',',<31>,34:20]
FLOAT: [@90,685:688='46.8',<45>,34:22]
'-': [@91,690:690='-',<26>,34:27]
FLOAT: [@92,692:694='7.2',<45>,34:29]
',': [@93,696:696=',',<31>,34:33]
FLOAT: [@94,698:700='1.3',<45>,34:35]
'/': [@95,701:701='/',<28>,34:38]
FLOAT: [@96,704:706='7.7',<45>,34:41]
',': [@97,707:707=',',<31>,34:44]
FLOAT: [@98,709:711='8.0',<45>,34:46]
'%': [@99,712:712='%',<29>,34:49]
FLOAT: [@100,713:715='2.0',<45>,34:50]
',': [@101,716:716=',',<31>,34:53]
FLOAT: [@102,718:721='10.0',<45>,34:55]
'/': [@103,722:722='/',<28>,34:59]
FLOAT: [@104,723:725='2.0',<45>,34:60]
')': [@105,726:726=')',<33>,34:63]
';': [@106,727:727=';',<37>,34:64]
'}': [@107,859:859='}',<35>,43:0]
