'{': [@0,362:362='{',<34>,22:0]
'println': [@1,369:375='println',<13>,24:4]
'(': [@2,376:376='(',<32>,24:11]
INT: [@3,377:378='10',<44>,24:12]
')': [@4,379:379=')',<33>,24:14]
';': [@5,380:380=';',<37>,24:15]
'println': [@6,386:392='println',<13>,25:4]
'(': [@7,393:393='(',<32>,25:11]
'-': [@8,394:394='-',<26>,25:12]
INT: [@9,395:396='45',<44>,25:13]
')': [@10,399:399=')',<33>,25:17]
';': [@11,400:400=';',<37>,25:18]
'println': [@12,406:412='println',<13>,26:4]
'(': [@13,413:413='(',<32>,26:11]
INT: [@14,414:414='3',<44>,26:12]
'+': [@15,415:415='+',<25>,26:13]
INT: [@16,418:419='43',<44>,26:16]
')': [@17,420:420=')',<33>,26:18]
';': [@18,421:421=';',<37>,26:19]
'println': [@19,427:433='println',<13>,27:4]
'(': [@20,434:434='(',<32>,27:11]
INT: [@21,437:437='8',<44>,27:14]
'+': [@22,440:440='+',<25>,27:17]
'-': [@23,442:442='-',<26>,27:19]
INT: [@24,443:443='3',<44>,27:20]
')': [@25,447:447=')',<33>,27:24]
';': [@26,448:448=';',<37>,27:25]
'println': [@27,454:460='println',<13>,28:4]
'(': [@28,461:461='(',<32>,28:11]
INT: [@29,462:463='59',<44>,28:12]
'-': [@30,464:464='-',<26>,28:14]
INT: [@31,465:466='76',<44>,28:15]
')': [@32,467:467=')',<33>,28:17]
';': [@33,468:468=';',<37>,28:18]
'println': [@34,474:480='println',<13>,29:4]
'(': [@35,481:481='(',<32>,29:11]
INT: [@36,482:483='47',<44>,29:12]
'-': [@37,485:485='-',<26>,29:15]
INT: [@38,489:490='32',<44>,29:19]
')': [@39,491:491=')',<33>,29:21]
';': [@40,492:492=';',<37>,29:22]
'print': [@41,498:502='print',<12>,30:4]
'(': [@42,503:503='(',<32>,30:9]
INT: [@43,504:504='8',<44>,30:10]
'*': [@44,505:505='*',<27>,30:11]
INT: [@45,506:506='4',<44>,30:12]
')': [@46,507:507=')',<33>,30:13]
';': [@47,508:508=';',<37>,30:14]
'print': [@48,514:518='print',<12>,31:4]
'(': [@49,519:519='(',<32>,31:9]
'-': [@50,520:520='-',<26>,31:10]
INT: [@51,521:521='6',<44>,31:11]
'*': [@52,525:525='*',<27>,31:15]
INT: [@53,529:529='7',<44>,31:19]
')': [@54,530:530=')',<33>,31:20]
';': [@55,531:531=';',<37>,31:21]
'print': [@56,537:541='print',<12>,32:4]
'(': [@57,542:542='(',<32>,32:9]
INT: [@58,543:543='9',<44>,32:10]
'/': [@59,544:544='/',<28>,32:11]
INT: [@60,545:545='3',<44>,32:12]
')': [@61,546:546=')',<33>,32:13]
';': [@62,547:547=';',<37>,32:14]
'println': [@63,553:559='println',<13>,33:4]
'(': [@64,560:560='(',<32>,33:11]
INT: [@65,563:564='12',<44>,33:14]
'/': [@66,567:567='/',<28>,33:18]
INT: [@67,571:571='3',<44>,33:22]
')': [@68,572:572=')',<33>,33:23]
';': [@69,573:573=';',<37>,33:24]
'println': [@70,579:585='println',<13>,34:4]
'(': [@71,586:586='(',<32>,34:11]
INT: [@72,587:587='9',<44>,34:12]
'%': [@73,591:591='%',<29>,34:16]
INT: [@74,592:592='4',<44>,34:17]
')': [@75,594:594=')',<33>,34:19]
';': [@76,595:595=';',<37>,34:20]
'println': [@77,601:607='println',<13>,35:4]
'(': [@78,608:608='(',<32>,35:11]
INT: [@79,609:610='12',<44>,35:12]
'%': [@80,613:613='%',<29>,35:16]
INT: [@81,617:617='5',<44>,35:20]
')': [@82,620:620=')',<33>,35:23]
';': [@83,621:621=';',<37>,35:24]
'println': [@84,627:633='println',<13>,36:4]
'(': [@85,634:634='(',<32>,36:11]
INT: [@86,635:636='12',<44>,36:12]
'+': [@87,637:637='+',<25>,36:14]
INT: [@88,638:638='7',<44>,36:15]
',': [@89,639:639=',',<31>,36:16]
INT: [@90,641:642='46',<44>,36:18]
'-': [@91,644:644='-',<26>,36:21]
INT: [@92,646:646='7',<44>,36:23]
',': [@93,648:648=',',<31>,36:25]
INT: [@94,650:650='1',<44>,36:27]
'/': [@95,651:651='/',<28>,36:28]
INT: [@96,654:654='7',<44>,36:31]
',': [@97,655:655=',',<31>,36:32]
INT: [@98,657:658='10',<44>,36:34]
'%': [@99,659:659='%',<29>,36:36]
INT: [@100,660:660='2',<44>,36:37]
',': [@101,661:661=',',<31>,36:38]
INT: [@102,663:664='10',<44>,36:40]
'/': [@103,665:665='/',<28>,36:42]
INT: [@104,666:666='2',<44>,36:43]
')': [@105,667:667=')',<33>,36:44]
';': [@106,668:668=';',<37>,36:45]
'println': [@107,679:685='println',<13>,38:4]
'(': [@108,686:686='(',<32>,38:11]
')': [@109,687:687=')',<33>,38:12]
';': [@110,688:688=';',<37>,38:13]
'printx': [@111,699:704='printx',<15>,40:4]
'(': [@112,705:705='(',<32>,40:10]
INT: [@113,706:706='7',<44>,40:11]
')': [@114,707:707=')',<33>,40:12]
';': [@115,708:708=';',<37>,40:13]
'printx': [@116,714:719='printx',<15>,41:4]
'(': [@117,720:720='(',<32>,41:10]
'-': [@118,721:721='-',<26>,41:11]
INT: [@119,722:723='32',<44>,41:12]
')': [@120,724:724=')',<33>,41:14]
';': [@121,725:725=';',<37>,41:15]
'printx': [@122,731:736='printx',<15>,42:4]
'(': [@123,737:737='(',<32>,42:10]
INT: [@124,738:739='13',<44>,42:11]
'+': [@125,741:741='+',<25>,42:14]
INT: [@126,743:743='7',<44>,42:16]
')': [@127,744:744=')',<33>,42:17]
';': [@128,745:745=';',<37>,42:18]
'printlnx': [@129,751:758='printlnx',<14>,43:4]
'(': [@130,759:759='(',<32>,43:12]
INT: [@131,760:761='21',<44>,43:13]
'/': [@132,762:762='/',<28>,43:15]
INT: [@133,763:763='4',<44>,43:16]
')': [@134,764:764=')',<33>,43:17]
';': [@135,765:765=';',<37>,43:18]
'printlnx': [@136,771:778='printlnx',<14>,44:4]
'(': [@137,779:779='(',<32>,44:12]
INT: [@138,780:781='24',<44>,44:13]
'%': [@139,782:782='%',<29>,44:15]
INT: [@140,783:784='11',<44>,44:16]
')': [@141,785:785=')',<33>,44:18]
';': [@142,786:786=';',<37>,44:19]
'}': [@143,788:788='}',<35>,45:0]
